Wonton.CrossUI.Web/Waveform.vcd
$date Fri Mar 19 00:14:54 2021
$end
$version VCD Tracer "Nestor" Release v.3.0.2
$end
$timescale 1 us
$end
$var wire 1 alarm alarm $end
$var wire 1 hr_alarm[0] hr_alarm[0] $end
$var wire 1 hr_alarm[1] hr_alarm[1] $end
$var wire 1 hr_alarm[2] hr_alarm[2] $end
$var wire 1 hr_alarm[3] hr_alarm[3] $end
$var wire 1 hr_out[0] hr_out[0] $end
$var wire 1 hr_out[1] hr_out[1] $end
$var wire 1 hr_out[2] hr_out[2] $end
$var wire 1 hr_out[3] hr_out[3] $end
$var wire 1 min_alarm[0] min_alarm[0] $end
$var wire 1 min_alarm[1] min_alarm[1] $end
$var wire 1 min_alarm[2] min_alarm[2] $end
$var wire 1 min_alarm[3] min_alarm[3] $end
$var wire 1 min_alarm[4] min_alarm[4] $end
$var wire 1 min_alarm[5] min_alarm[5] $end
$var wire 1 min_out[0] min_out[0] $end
$var wire 1 min_out[1] min_out[1] $end
$var wire 1 min_out[2] min_out[2] $end
$var wire 1 min_out[3] min_out[3] $end
$var wire 1 min_out[4] min_out[4] $end
$var wire 1 min_out[5] min_out[5] $end
$var wire 1 mode mode $end
$var wire 1 rst_n rst_n $end
$var wire 1 sec_out[0] sec_out[0] $end
$var wire 1 sec_out[1] sec_out[1] $end
$var wire 1 sec_out[2] sec_out[2] $end
$var wire 1 sec_out[3] sec_out[3] $end
$var wire 1 sec_out[4] sec_out[4] $end
$var wire 1 sec_out[5] sec_out[5] $end
$var wire 1 set_hr set_hr $end
$var wire 1 set_min set_min $end
$enddefinitions $end
$dumpvars
bx alarm
bx hr_alarm[0]
bx hr_alarm[1]
bx hr_alarm[2]
bx hr_alarm[3]
bx hr_out[0]
bx hr_out[1]
bx hr_out[2]
bx hr_out[3]
bx min_alarm[0]
bx min_alarm[1]
bx min_alarm[2]
bx min_alarm[3]
bx min_alarm[4]
bx min_alarm[5]
bx min_out[0]
bx min_out[1]
bx min_out[2]
bx min_out[3]
bx min_out[4]
bx min_out[5]
bx mode
bx rst_n
bx sec_out[0]
bx sec_out[1]
bx sec_out[2]
bx sec_out[3]
bx sec_out[4]
bx sec_out[5]
bx set_hr
bx set_min
$end
#0
b0 alarm
b0 hr_alarm[0]
b0 hr_alarm[1]
b1 hr_alarm[2]
b1 hr_alarm[3]
b0 hr_out[0]
b0 hr_out[1]
b1 hr_out[2]
b1 hr_out[3]
b0 min_alarm[0]
b0 min_alarm[1]
b0 min_alarm[2]
b0 min_alarm[3]
b0 min_alarm[4]
b0 min_alarm[5]
b0 min_out[0]
b0 min_out[1]
b0 min_out[2]
b0 min_out[3]
b0 min_out[4]
b0 min_out[5]
b0 mode
b0 rst_n
b0 sec_out[0]
b0 sec_out[1]
b0 sec_out[2]
b0 sec_out[3]
b0 sec_out[4]
b0 sec_out[5]
b0 set_hr
b0 set_min
#14
b1 rst_n
#15
b1 alarm
b1 sec_out[0]
#16
b0 sec_out[0]
b1 sec_out[1]
#17
b1 sec_out[0]
#18
b0 sec_out[0]
b0 sec_out[1]
b1 sec_out[2]
#19
b1 sec_out[0]
#20
b0 sec_out[0]
b1 sec_out[1]
#21
b1 sec_out[0]
#22
b0 sec_out[0]
b0 sec_out[1]
b0 sec_out[2]
b1 sec_out[3]
#23
b1 sec_out[0]
#24
b0 sec_out[0]
b1 sec_out[1]
#25
b1 sec_out[0]
#26
b0 sec_out[0]
b0 sec_out[1]
b1 sec_out[2]
#27
b1 sec_out[0]
#28
b0 sec_out[0]
b1 sec_out[1]
#29
b1 sec_out[0]
#30
b0 sec_out[0]
b0 sec_out[1]
b0 sec_out[2]
b0 sec_out[3]
b1 sec_out[4]
#31
b1 sec_out[0]
#32
b0 sec_out[0]
b1 sec_out[1]
#33
b1 sec_out[0]
#34
b0 sec_out[0]
b0 sec_out[1]
b1 sec_out[2]
#35
b1 sec_out[0]
#36
b0 sec_out[0]
b1 sec_out[1]
#37
b1 sec_out[0]
#38
b0 sec_out[0]
b0 sec_out[1]
b0 sec_out[2]
b1 sec_out[3]
#39
b1 sec_out[0]
#40
b0 sec_out[0]
b1 sec_out[1]
#41
b1 sec_out[0]
#42
b0 sec_out[0]
b0 sec_out[1]
b1 sec_out[2]
#43
b1 sec_out[0]
#44
b0 sec_out[0]
b1 sec_out[1]
#45
b1 sec_out[0]
#46
b0 sec_out[0]
b0 sec_out[1]
b0 sec_out[2]
b0 sec_out[3]
b0 sec_out[4]
b1 sec_out[5]
#47
b1 sec_out[0]
#48
b0 sec_out[0]
b1 sec_out[1]
#49
b1 sec_out[0]
#50
b0 sec_out[0]
b0 sec_out[1]
b1 sec_out[2]
#51
b1 sec_out[0]
#52
b0 sec_out[0]
b1 sec_out[1]
#53
b1 sec_out[0]
#54
b0 sec_out[0]
b0 sec_out[1]
b0 sec_out[2]
b1 sec_out[3]
#55
b1 sec_out[0]
#56
b0 sec_out[0]
b1 sec_out[1]
#57
b1 sec_out[0]
#58
b0 sec_out[0]
b0 sec_out[1]
b1 sec_out[2]
#59
b1 sec_out[0]
#60
b0 sec_out[0]
b1 sec_out[1]
#61
b1 sec_out[0]
#62
b0 sec_out[0]
b0 sec_out[1]
b0 sec_out[2]
b0 sec_out[3]
b1 sec_out[4]
